.data
	num1:	.word 23
	num2:	.word 3 
	num3:	.word 0
	
.text
	
	li $t1, 34 
	li $t2, 256
	li $t4, 256
	li $t3, 0

	LOOP:

		beq $t1, $t3, END

		add $t2, $t2, $t4 # t1 = t1 + 1
		sub $t1, $t1, 1 # t2 = t2 - 1
		
	j LOOP

	END:
	li $t3, 1337